 mc16_13TeV:mc16_13TeV.504509.MGPy8EG_A14NNPDF23LO_GG_rpv_UDB_100_squarks.deriv.DAOD_SUSY4.e8258_s3126_r9364_p4237       
 mc16_13TeV:mc16_13TeV.504510.MGPy8EG_A14NNPDF23LO_GG_rpv_UDB_200_squarks.deriv.DAOD_SUSY4.e8258_s3126_r9364_p4237       
 mc16_13TeV:mc16_13TeV.504511.MGPy8EG_A14NNPDF23LO_GG_rpv_UDB_300_squarks.deriv.DAOD_SUSY4.e8258_s3126_r9364_p4237       
 mc16_13TeV:mc16_13TeV.504512.MGPy8EG_A14NNPDF23LO_GG_rpv_UDB_400_squarks.deriv.DAOD_SUSY4.e8258_s3126_r9364_p4237       
 mc16_13TeV:mc16_13TeV.504513.MGPy8EG_A14NNPDF23LO_GG_rpv_UDB_900_squarks.deriv.DAOD_SUSY4.e8258_s3126_r9364_p4237       
 mc16_13TeV:mc16_13TeV.504514.MGPy8EG_A14NNPDF23LO_GG_rpv_UDB_1000_squarks.deriv.DAOD_SUSY4.e8258_s3126_r9364_p4237      
 mc16_13TeV:mc16_13TeV.504515.MGPy8EG_A14NNPDF23LO_GG_rpv_UDB_1100_squarks.deriv.DAOD_SUSY4.e8258_s3126_r9364_p4237      
 mc16_13TeV:mc16_13TeV.504516.MGPy8EG_A14NNPDF23LO_GG_rpv_UDB_1200_squarks.deriv.DAOD_SUSY4.e8258_s3126_r9364_p4237      
 mc16_13TeV:mc16_13TeV.504517.MGPy8EG_A14NNPDF23LO_GG_rpv_UDB_1300_squarks.deriv.DAOD_SUSY4.e8258_s3126_r9364_p4237      
 mc16_13TeV:mc16_13TeV.504518.MGPy8EG_A14NNPDF23LO_GG_rpv_UDB_1400_squarks.deriv.DAOD_SUSY4.e8258_s3126_r9364_p4237      
 mc16_13TeV:mc16_13TeV.504519.MGPy8EG_A14NNPDF23LO_GG_rpv_UDB_1500_squarks.deriv.DAOD_SUSY4.e8258_s3126_r9364_p4237      
 mc16_13TeV:mc16_13TeV.504520.MGPy8EG_A14NNPDF23LO_GG_rpv_UDB_1600_squarks.deriv.DAOD_SUSY4.e8258_s3126_r9364_p4237      
 mc16_13TeV:mc16_13TeV.504521.MGPy8EG_A14NNPDF23LO_GG_rpv_UDB_1700_squarks.deriv.DAOD_SUSY4.e8258_s3126_r9364_p4237      
 mc16_13TeV:mc16_13TeV.504522.MGPy8EG_A14NNPDF23LO_GG_rpv_UDB_1800_squarks.deriv.DAOD_SUSY4.e8258_s3126_r9364_p4237      
 mc16_13TeV:mc16_13TeV.504523.MGPy8EG_A14NNPDF23LO_GG_rpv_UDB_1900_squarks.deriv.DAOD_SUSY4.e8258_s3126_r9364_p4237      
 mc16_13TeV:mc16_13TeV.504524.MGPy8EG_A14NNPDF23LO_GG_rpv_UDB_2000_squarks.deriv.DAOD_SUSY4.e8258_s3126_r9364_p4237      
 mc16_13TeV:mc16_13TeV.504525.MGPy8EG_A14NNPDF23LO_GG_rpv_UDB_2100_squarks.deriv.DAOD_SUSY4.e8258_s3126_r9364_p4237      
 mc16_13TeV:mc16_13TeV.504526.MGPy8EG_A14NNPDF23LO_GG_rpv_UDB_2200_squarks.deriv.DAOD_SUSY4.e8258_s3126_r9364_p4237      
 mc16_13TeV:mc16_13TeV.504527.MGPy8EG_A14NNPDF23LO_GG_rpv_UDB_2300_squarks.deriv.DAOD_SUSY4.e8258_s3126_r9364_p4237      
 mc16_13TeV:mc16_13TeV.504528.MGPy8EG_A14NNPDF23LO_GG_rpv_UDB_2400_squarks.deriv.DAOD_SUSY4.e8258_s3126_r9364_p4237      
 mc16_13TeV:mc16_13TeV.504529.MGPy8EG_A14NNPDF23LO_GG_rpv_UDB_2500_squarks.deriv.DAOD_SUSY4.e8258_s3126_r9364_p4237      
