 mc16_13TeV:mc16_13TeV.364700.Pythia8EvtGen_A14NNPDF23LO_jetjet_JZ0WithSW.deriv.DAOD_SUSY4.e7142_s3126_r10201_p4237       
 mc16_13TeV:mc16_13TeV.364701.Pythia8EvtGen_A14NNPDF23LO_jetjet_JZ1WithSW.deriv.DAOD_SUSY4.e7142_s3126_r10201_p4237       
 mc16_13TeV:mc16_13TeV.364702.Pythia8EvtGen_A14NNPDF23LO_jetjet_JZ2WithSW.deriv.DAOD_SUSY4.e7142_s3126_r10201_p4237       
 mc16_13TeV:mc16_13TeV.364703.Pythia8EvtGen_A14NNPDF23LO_jetjet_JZ3WithSW.deriv.DAOD_SUSY4.e7142_s3126_r10201_p4237       
 mc16_13TeV:mc16_13TeV.364704.Pythia8EvtGen_A14NNPDF23LO_jetjet_JZ4WithSW.deriv.DAOD_SUSY4.e7142_s3126_r10201_p4237       
 mc16_13TeV:mc16_13TeV.364705.Pythia8EvtGen_A14NNPDF23LO_jetjet_JZ5WithSW.deriv.DAOD_SUSY4.e7142_s3126_r10201_p4237       
 mc16_13TeV:mc16_13TeV.364706.Pythia8EvtGen_A14NNPDF23LO_jetjet_JZ6WithSW.deriv.DAOD_SUSY4.e7142_s3126_r10201_p4237       
 mc16_13TeV:mc16_13TeV.364707.Pythia8EvtGen_A14NNPDF23LO_jetjet_JZ7WithSW.deriv.DAOD_SUSY4.e7142_s3126_r10201_p4237       
 mc16_13TeV:mc16_13TeV.364709.Pythia8EvtGen_A14NNPDF23LO_jetjet_JZ9WithSW.deriv.DAOD_SUSY4.e7142_s3126_r10201_p4237       
 mc16_13TeV:mc16_13TeV.364710.Pythia8EvtGen_A14NNPDF23LO_jetjet_JZ10WithSW.deriv.DAOD_SUSY4.e7142_s3126_r10201_p4237      
 mc16_13TeV:mc16_13TeV.364711.Pythia8EvtGen_A14NNPDF23LO_jetjet_JZ11WithSW.deriv.DAOD_SUSY4.e7142_s3126_r10201_p4237      
 mc16_13TeV:mc16_13TeV.364712.Pythia8EvtGen_A14NNPDF23LO_jetjet_JZ12WithSW.deriv.DAOD_SUSY4.e7142_s3126_r10201_p4237      
